Failed to compare the SHA256SUMS, they are not identical!
--- /tmp/ddtp_dinstall_tmpdir.XXXXXX/SHA256SUMS.sorted
+++ /tmp/ddtp_dinstall_tmpdir.XXXXXX/SHA256SUMS.new.sorted
@@ -1,2 +1 @@
 7cad6032819cd954993be6169fc0c0fa4b5ce981024dc2e0fa2cbab7648b2690  dists/sid/main/i18n/Translation-de
-7cad6032819cd954993be6169fc0c0fa4b5ce981024dc2e0fa2cbab7648b2690  dists/sid/main/i18n/Translation-fr
status: 1
